^C:\USERS\ARNAU\DESKTOP\ARNAU\UAB\3ER\VGI\VGI\MONO\ENTORNMONOF\PRACTICA.RC
C:\USERS\ARNAU\DESKTOP\ARNAU\UAB\3ER\VGI\VGI\MONO\ENTORNMONOF\DEBUG\PRACTICA.RES
^C:\USERS\ARNAU\DESKTOP\ARNAU\UAB\3ER\VGI\VGI\MONO\ENTORNMONOF\DEBUG\PRACTICA_MANIFEST.RC
C:\USERS\ARNAU\DESKTOP\ARNAU\UAB\3ER\VGI\VGI\MONO\ENTORNMONOF\DEBUG\PRACTICA.EXE.EMBED.MANIFEST.RES
^C:\USERS\DOKAN\DESKTOP\PRACTICA_1_I_2\PRÀCTICA 1 I 2\ENTORNMONOF\PRACTICA.RC
C:\USERS\DOKAN\DESKTOP\PRACTICA_1_I_2\PRàCTICA 1 I 2\ENTORNMONOF\DEBUG\PRACTICA.RES
^C:\USERS\DOKAN\DESKTOP\PRACTICA_1_I_2\PRÀCTICA 1 I 2\ENTORNMONOF\DEBUG\PRACTICA_MANIFEST.RC
C:\USERS\DOKAN\DESKTOP\PRACTICA_1_I_2\PRàCTICA 1 I 2\ENTORNMONOF\DEBUG\PRACTICA.EXE.EMBED.MANIFEST.RES
^C:\USERS\DOKAN\DESKTOP\MONO\ENTORNMONOF\PRACTICA.RC
C:\USERS\DOKAN\DESKTOP\MONO\ENTORNMONOF\DEBUG\PRACTICA.RES
^C:\USERS\DOKAN\DESKTOP\MONO\ENTORNMONOF\DEBUG\PRACTICA_MANIFEST.RC
C:\USERS\DOKAN\DESKTOP\MONO\ENTORNMONOF\DEBUG\PRACTICA.EXE.EMBED.MANIFEST.RES
^C:\USERS\DOKAN\DESKTOP\UNI\3R\S1\VGI\PRÀCTIQUES\PRACTICA 2\ENTORNMONOF\PRACTICA.RC
C:\USERS\DOKAN\DESKTOP\UNI\3R\S1\VGI\PRàCTIQUES\PRACTICA 2\ENTORNMONOF\DEBUG\PRACTICA.RES
^C:\USERS\DOKAN\DESKTOP\UNI\3R\S1\VGI\PRÀCTIQUES\PRACTICA 2\ENTORNMONOF\DEBUG\PRACTICA_MANIFEST.RC
C:\USERS\DOKAN\DESKTOP\UNI\3R\S1\VGI\PRàCTIQUES\PRACTICA 2\ENTORNMONOF\DEBUG\PRACTICA.EXE.EMBED.MANIFEST.RES
^C:\USERS\DOKAN\DESKTOP\UNI\3R\S1\VGI\PRÀCTIQUES\PRACTICA 3\ENTORNMONOF\DEBUG\PRACTICA_MANIFEST.RC
C:\USERS\DOKAN\DESKTOP\UNI\3R\S1\VGI\PRàCTIQUES\PRACTICA 3\ENTORNMONOF\DEBUG\PRACTICA.EXE.EMBED.MANIFEST.RES
^C:\USERS\DOKAN\DESKTOP\UNI\3R\S1\VGI\PRÀCTIQUES\PRACTICA 3\ENTORNMONOF\PRACTICA.RC
C:\USERS\DOKAN\DESKTOP\UNI\3R\S1\VGI\PRàCTIQUES\PRACTICA 3\ENTORNMONOF\DEBUG\PRACTICA.RES
